-1.0    7.859    3.699
-0.9   12.012    4.942
-0.8   13.223    2.788
-0.7   15.386    3.577
-0.6   17.923    3.349
-0.5   21.018    2.447
-0.4   23.201    2.938
-0.3   25.595    2.742
-0.2   25.519    2.792
-0.1   26.523    3.149
 0.0   27.647    3.539
 0.1   27.635    3.800
 0.2   25.966    3.618
 0.3   25.141    3.492
 0.4   23.505    3.474
 0.5   22.105    3.123
 0.6   19.686    3.624
 0.7   18.086    5.050
 0.8   15.706    4.084
 0.9   12.951    4.916
 1.0   10.318    3.854
 1.1    9.225    3.759
 1.2    7.810    2.617